{
    "/js/app.js": "/js/app.js?id=cbfdb7754efb05c654ce",
    "/css/app.css": "/css/app.css?id=4f2f6fc08beb18d362ab",
    "/css/landing.css": "/css/landing.css?id=330fb97b6a03afef8f27",
    "/js/manifest.js": "/js/manifest.js?id=41f053ba9a94d81b39f8",
    "/js/vendor.js": "/js/vendor.js?id=9d513a354b746efbc83a",
    "/css/style.css": "/css/style.css?id=f4d9338e0185e3a686a9",
    "/css/bootstrap.css.map": "/css/bootstrap.css.map?id=064ecb4098489747f9ee",
    "/css/bootstrap-datepicker3.css.map": "/css/bootstrap-datepicker3.css.map?id=c6296b5120f2915b054c",
    "/js/script.js": "/js/script.js?id=13a6505f900f4bc5d815",
    "/js/landing.js": "/js/landing.js?id=4a07e080515c69fd2175"
}
